  908847.3  6522394.5   33.6
  880312.3  6544511.4   33.7
  744142.6  6944208.8   28.6
  738296.6  6916968.2   29.6
  714823.9  6968820.2   25.9
  772213.9  6941032.5   29.8
  695989.9  6624218.1   37.9
  667041.3  6583739.8   38.6
  992231.9  6372578.2   35.8
  922232.1  6316196.0   36.7
  982346.5  6326065.7   34.7
  978022.0  6391330.7   34.6
 1015151.9  6415332.5   31.4
  954341.4  6401997.4   31.1
  964672.8  6442447.4   30.6
 1019169.8  6281021.0   32.2
 1006399.0  6309013.7   29.2
 1014575.0  6341213.3   30.0
 1056271.9  6317090.1   32.0
  824219.8  6393338.5   34.0
  820418.8  6416717.6   33.7
  785791.2  6404420.0   31.4
  807778.9  6434105.7   34.0
  847343.5  6952865.6   31.5
  809965.6  6981059.6   25.0
  592650.3  6181399.4   29.1
  611777.0  6210706.5   35.4
  545506.7  6213622.8   33.5
  737329.3  6815613.1   32.7
  809059.9  6806877.3   34.0
  642699.3  6235374.4   35.1
  705040.0  6202073.8   27.4
  642643.2  6256836.5   32.3
  696404.7  6227893.3   34.2
  715416.1  6313709.6   32.8
  686830.1  6310309.3   36.4
  658770.2  6368050.2   37.1
  622200.1  6364106.8   39.4
  836996.2  6269318.2   36.0
  855427.3  6271191.7   37.7
  901217.2  6248869.6   35.6
  869921.7  6280517.4   38.0
  450672.0  6920341.4   19.1
  469351.4  6874354.3   28.6
  494198.8  6922016.1   26.7
  654142.4  6421524.6   35.9
  699256.8  6441687.1   35.0
  686894.2  6467028.7   33.2
  633957.5  6404241.9   36.0
  474071.5  6507287.9   34.0
  465003.2  6466970.9   32.8
  436524.3  6552348.4   34.9
  390873.2  6511465.1   34.5
  433617.2  6490042.0   32.9
  656859.4  6711288.9   34.2
  672818.9  6661362.0   36.6
  659314.7  6625773.2   38.0
  641359.5  6591985.3   35.3
  580000.2  6450868.5   36.0
  581228.1  6438564.1   37.0
  654713.3  6493248.3   34.1
  832227.5  6666523.9   32.7
  818246.3  6751047.4   38.1
  834326.1  6701507.7   34.4
  229079.2  6846779.0   23.1
  224982.6  6870041.9   21.3
  273837.3  6811653.4   28.7
  300073.9  6838055.1   25.3
  313729.0  6851090.2   20.1
  601267.7  6538854.4   33.1
  636853.0  6531473.4   33.8
  580705.0  6572542.5   34.3
  538313.6  6411354.6   34.8
  517470.2  6453812.8   34.1
  531887.4  6488493.6   33.8
  545725.6  6447799.4   34.5
  955100.6  6675069.0   32.0
  986647.4  6689379.2   31.9
  953678.4  6630758.2   31.3
  842930.8  6463080.4   35.6
  914795.5  6400761.3   33.4
  892245.5  6358011.4   35.0
  521593.3  6891792.2   27.6
  569949.1  6882000.6   28.0
  589191.2  6818830.5   29.9
  565576.5  6846724.7   29.9
  154846.1  6842141.0   28.9
  105513.7  6849554.7   17.2
  135206.6  6854936.6   25.1
  166426.4  6787808.4   30.4
  174209.1  6815309.9   30.2
  179458.9  6863355.2   22.0
  797587.2  6271620.5   36.2
  807429.9  6347907.2   37.6
  813056.5  6307413.0   38.2
  814109.1  6297305.5   38.0
  787781.1  6300159.9   38.0
  569098.6  6281542.2   37.7
  559266.6  6262914.2   35.0
  609382.0  6260926.7   35.7
  486261.0  6323068.8   33.2
  529261.1  6274300.7   35.3
  475730.3  6283680.7   33.5
  446598.7  6378891.0   31.2
  403172.5  6464316.0   32.8
  426588.9  6442424.4   32.1
  371849.2  6390295.9   34.6
  777927.8  6275703.7   34.1
  719813.8  6298566.0   29.8
  769854.5  6291386.4   37.5
  758709.2  6298096.2   36.2
  732421.5  6259903.7   36.1
  331229.6  6769428.9   32.0
  394931.3  6827857.7   30.5
  325861.3  6843642.3   26.6
  604093.7  6641826.0   35.3
  566281.8  6624002.1   35.6
  528744.2  6707363.8   33.6
  509538.6  6726935.9   35.4
  484332.1  6684632.0   35.1
  903238.0  6476217.5   35.0
  919752.9  6430077.0   31.8
  881057.6  6476484.5   34.3
  923529.3  6461545.2   33.1
  926221.6  6451733.5   26.5
  892351.3  6624476.0   32.6
  888085.2  6590144.2   34.9
  362066.9  6379382.2   33.4
  455804.1  6326301.4   31.5
  437364.8  6348353.6   32.6
  382807.0  6320948.2   31.0
  422836.2  6288296.1   30.2
  600862.1  6691837.3   34.0
  589553.0  6756977.9   32.4
  800938.6  6494834.2   35.8
  822105.0  6474730.0   30.9
  806631.6  6484039.0   33.9
  770411.7  6439864.6   37.6
  752264.8  6449804.9   33.0
  766643.5  6417978.8   32.7
  796463.4  6469031.7   33.9
  350976.6  6682349.0   35.7
  359910.3  6712461.6   34.6
  679683.2  6762429.9   34.3
  652377.4  6731259.4   34.3
  620958.2  6386742.3   37.6
  596140.8  6398553.2   38.3
  507671.3  6344367.2   34.6
  533338.8  6389601.7   33.8
  521924.5  6369017.2   35.3
  718881.5  6392690.4   31.8
  724224.0  6349754.6   34.2
  427901.9  6714953.6   34.0
  461552.8  6715082.8   34.2
  440245.1  6689197.9   34.1
  385877.3  6890353.9   23.3
  363810.2  6899551.8   22.4
  397531.1  6930758.7   18.5
  771803.9  6880210.1   30.7
  819048.3  6845771.5   32.9
  784189.5  6901728.1   31.2
  853016.8  6811321.4   34.1
  874818.7  6751834.0   33.2
  852295.6  6778814.1   35.3
  435367.1  6760429.9   31.1
  420861.7  6776642.2   31.1
  918264.0  6835271.1   32.9
  937065.4  6847905.9   32.8
  872727.8  6873322.9   30.7
  860196.2  6931196.0   31.7
  895761.8  6906081.5   31.3
  849293.8  6858426.3   32.0
  272204.3  6769277.3   30.7
  259612.4  6789304.1   29.5
  297415.5  6774893.4   30.9
  271034.0  6738201.8   31.4
  999998.9  6854341.9   31.6
  970598.4  6874076.4   31.6
 1019685.7  6900437.2   30.4
  770890.1  6663756.0   34.9
  708548.8  6655321.0   36.6
  653581.1  7106853.0   19.2
  766189.5  7005618.4   24.3
  732857.2  7025682.1   25.5
  618493.3  6912443.6   28.8
  680791.0  6889589.0   29.4
  612567.8  6947768.0   26.0
  486323.9  6820022.0   30.2
  517708.6  6831222.0   30.3
  600944.8  7071525.1   20.1
  664271.4  7053705.0   24.1
  637078.3  7050570.8   22.6
  602171.1  7047202.3   23.8
  757968.1  6491071.7   37.2
  682395.4  6492613.5   30.1
  744483.6  6517304.3   36.0
  769106.2  6497726.7   31.6
  684809.9  6548101.9   35.5
  691284.2  6507709.9   33.2
  333146.0  6273876.9   29.4
  320351.5  6266304.9   30.1
  371134.0  6223291.6   29.5
  396303.8  6274114.3   31.0
  449232.4  6213035.3   38.6
  485571.5  6228874.4   32.9
  490325.8  6191941.7   30.9
  460493.4  6257386.3   32.2
  689569.8  6181939.0   32.4
  657861.6  6191335.8   34.2
  615352.4  6156157.2   28.8
 1015634.4  6820287.9   25.7
 1042284.3  6837750.8   31.6
 1032074.3  6806356.8   31.3
 1016219.0  6734166.4   31.3
 1021193.6  6747569.7   31.1
 1038597.5  6733425.6   31.9
  850702.4  6515876.8   35.7
  832234.9  6552353.3   34.6
  861586.2  6516215.3   35.0
  983534.5  6754603.4   27.3
  951789.0  6748313.7   33.9
  958138.3  6721527.5   33.2
  839149.5  6637918.8   34.1
  812995.1  6615216.5   32.0
  872840.7  6605707.6   34.4
  481701.0  6738735.3   33.4
  460137.9  6786988.7   30.1
  919656.9  6510672.1   29.4
  974731.9  6523417.6   28.9
  938096.4  6492836.4   34.1
  974987.1  6472478.8   18.0
  924122.6  6508703.5   33.9
 1000355.2  6544014.7   34.7
  975218.7  6593164.1   28.9
  939696.9  6541180.9   33.1
  984590.4  6535015.2   26.8
  651378.3  6858159.8   30.8
  567941.4  6921883.9   28.4
  562664.4  6983171.7   21.0
  538440.2  6935006.4   28.9
  524828.7  6971097.3   19.5
  700854.3  6873832.7   29.9
  700553.1  6832785.9   31.4
  678832.6  6796667.6   34.2
  636016.1  6876256.5   30.1
  634810.9  6850415.2   29.5
  641493.1  6852784.1   29.5
  457230.9  6575384.6   33.7
  426812.9  6619166.0   33.2
  616543.1  7004795.3   25.4
  594267.0  7010860.7   24.9
  678718.6  6985940.6   25.7
  672300.4  6264389.3   34.3
  648040.4  6291986.9   35.3
  594141.7  6321087.9   35.6
  642316.2  6334478.8   34.8
  596471.9  6347625.9   38.0
  569871.2  6326757.2   34.7
  974775.0  6238744.7   36.8
  926214.5  6243183.9   33.0
  954384.1  6243745.1   38.5
 1002713.4  6265412.8   31.5
  982883.5  6220981.7   33.9
  936200.3  6228370.6   35.8
  852793.2  6314296.7   37.9
  873956.9  6311785.1   37.2
  848858.4  6340136.1   37.4
  851897.8  6361570.2   38.4
  409968.7  6601174.1   36.6
  300871.1  6669315.5   30.3
  407782.5  6636612.3   34.2
  522603.7  6623184.3   34.8
  491581.1  6565838.3   33.7
  534187.8  6592457.0   34.8
  558414.0  6530686.5   34.3
  538513.6  6535560.7   33.4
  995629.6  6812500.8   32.1
  956319.4  6795625.8   32.5
  901194.9  6810001.2   33.0
  979366.3  6777951.0   31.4
  741112.7  6747259.7   35.7
  698894.9  6728599.2   35.8
  721456.4  6785276.9   34.4
  988248.9  6728258.9   32.0
  653697.5  6813670.3   31.7
  629026.7  6888263.6   28.7
  665924.2  6879555.4   28.8
